^E:\ПОЛІТЕХ\АС\ЛАБ1\LAB_01\TASK_4\TASK_4.C
E:\Політех\ас\лаб1\LAB_01\TASK_4\X64\DEBUG\VC143.PDB
E:\Політех\ас\лаб1\LAB_01\TASK_4\X64\DEBUG\VC143.IDB
E:\Політех\ас\лаб1\LAB_01\TASK_4\X64\DEBUG\TASK_4.OBJ
