^E:\ПОЛІТЕХ\АС\ЛАБ1\LAB_01\TASK_3\X64\DEBUG\TASK_3.OBJ
E:\Політех\ас\лаб1\LAB_01\X64\DEBUG\TASK_3.EXE
E:\Політех\ас\лаб1\LAB_01\TASK_3\X64\DEBUG\TASK_3.ILK
E:\Політех\ас\лаб1\LAB_01\X64\DEBUG\TASK_3.PDB
